{
    "misc": {
        "step_x": "گام [number]",
        "step_x_description": "گام [number]: [description]",
        "overview": {
            "tutorial_x_title": "آموزش [number]: [title]",
            "summary": "اف‌دروید فروشگاه کاره‌ای مستقل و مبتنی بر جامعه برای اندروید بوده که کاملاً نرم‌افزار آزاد است. با اف‌دروید می‌توانید بیش از ۱٫۲۰۰ کارهٔ آزاد را از میان مخازن موجود مرور، جست‌وجو و نصب کرده، یا مخازن خودتان را بسازید. برای بارگیری کاره و شروع به کار f-droid.org را روی دستگاه اندرویدیتان  بگشایید!",
            "title": "با اف‌دروید می‌شود چه‌کار کرد"
        },
        "option_x_description": "گزینهٔ [number]: [description]"
    },
    "add_repo": {
        "overview": {
            "title": "گرفتن محتوای بیش‌تر."
        },
        "open_repo_link": {
            "short_summary": "گشودن پیوند مخزن",
            "title": "گشودن پیوند مخزن روی تلفنتان",
            "steps": {
                "step_1": "اف‌دروید را روی اندرویدتان بارگیری و نصب کنید.",
                "step_2": "روی پیوند کلیک کرده و آن را در مرورگری روی تلفنتان بگشایید.",
                "step_3": "هنگام باز بودن پیوند، روی دکمهٔ «افزودن به اف‌دروید» بزنید.",
                "step_4": "روی دکمهٔ «اف‌دروید دارم» بزنید. کارهٔ اف‌دروید گشوده خواهد شد.",
                "step_5": "نمای «افزودن مخزن جدید» با نشانی از پیش پر شدهٔ مخزن نشان داده خواهد شد. برای افزودنش «قبول» را بزنید.",
                "step_6": "مخزن جدیدتان افزوده خواهد شد. برای دیدن فهرستی از مخزن‌هایتان «تنظیمات» را گشوده و «مخزن‌ها» را برگزینید.",
                "step_7": "برای دیدن محتویات یک مخزن، رویش بزنید.",
                "step_8": "کاره‌هایی که می‌خواهید داشته باشید را گزیده و آن‌ها را روی تلفنتان نصب کنید."
            }
        },
        "title": "چگونگی افزودن مخزن به اف‌دروید",
        "scan_qr_code": {
            "short_summary": "پویش رمز QR",
            "title": "پویش یک رمز QR از افزاره‌ای دیگر",
            "description": "اگر کسی در اطرافتان مخزنی دارد که می‌خواهیدش، می‌توانید رمز QR مخزن را از تلفنش پویش کنید یا اگر رمز QR یک مخزن روی پایگاه وبی نمایش داده شده است، با تلفنتان پویشش کرده و بیفزاییدش.",
            "steps": {
                "step_1": "هنگامی که رمز QR مخزن نمایش داده شد، آن را با یک کارهٔ پویشگر QR، بپویید.",
                "step_2": "روی پیوند بزنید. اگر انتخابش بودپویند را با اف‌دروید بگشایید. سپس دستورات را دنبال کنید. اگر کار کارد، تمام است! وگرنه به مرحلهٔ بعد بروید.",
                "step_3": "اگر انتخاب گشودن پیوند با اف‌دروید را نداشتید، پویشگر QR را بسته و کارهٔ اف‌دروید را بگشایید.",
                "step_4": "درون اف‌دروید «تنظیمات» را زده و «مخزن‌ها» را در زیر «برنامه‌های من» برگزینید.",
                "step_5": "در صفحهٔ مخزن‌ها، نقشک «+» در گوشهٔ بالا را بزنید.",
                "step_6": "نشانی مخزن به صورت خودکار پر خواهد شد. «فعّال سازی» را بزنید. نکته: مخزن در مخزن‌های اف‌دروید ذخیره خواهد شد، ولی تا زمانی که به صورت دستی انتخاب و نصب نکنید، کاره‌ای نصب نخواهد شد."
            },
            "related_tutorial": "ممکن است به <a href=\"../swap/\">چگونگی ارسال و دریافت کاره‌ها به صورت برون‌خط</a> علاقه داشته باشید"
        },
        "no_internet": "اینترنت ندارید؟ بیاموزید <a href=\"../swap/\">چگونه کاره‌ها را به صورت برون‌خط ارسال و دریافت کنید.</a>"
    },
    "swap": {
        "overview": {
            "title": "ارسال و دریافت برون‌خط کاره‌ها."
        }
    }
}
