{
    "index": {
        "download_fdroid": "Завантажити F-Droid",
        "introduction": "F-Droid - це встановлюваний каталог застосунків FOSS (вільного та відкритого програмного забезпечення) для платформи Android. Клієнт спрощує пошук, встановлення та відстеження оновлень на вашому пристроєві.",
        "gpg_signature": "PGP підпис",
        "screenshot": "Скриншот застосунку F-Droid для Android",
        "title": "Що таке F-Droid?"
    },
    "navigation": {
        "about": "Про",
        "documentation": "Документи",
        "forum": "Форум",
        "browse": "Огляд",
        "contribute": "Співпраця",
        "repomaker": "Repomaker",
        "tutorials": "Посібники",
        "news": "Новини",
        "issues": "Проблеми"
    },
    "package": {
        "anti_features_warning": "Цей застосунок містить функції, які можуть бути вам не до вподоби.",
        "website": "Веб-сайт",
        "permissions": "Дозволи",
        "donate": "Пожертвувати",
        "liberapay": "Liberapay",
        "technical_info": "Технічна інформація",
        "build_metadata": "Створення метаданих",
        "author": "Автор",
        "new_in_version": "Нове у версії [latest_version]",
        "version_info": "<b>Версія [package_version]</b> ([package_version_code]) - Додано на [package_added_date]",
        "changelog": "Зміни",
        "issue_tracker": "Відстеження помилок",
        "signed_by_developer": "Створено та підписано оригінальним розробником.",
        "gpg_signature": "PGP підпис",
        "signed_by_fdroid": "Створено і підписано F-Droid'ом, і гарантовано відповідає цьому <a href=\"[source_code_url]\"> архівному кодові</a>.",
        "packages": "Пакети",
        "download": "Завантажити [file_extension]",
        "license": "Ліцензія",
        "minimum_android_version": "Для цієї версії потрібен Android [android_version] або новіший.",
        "suggest_downloading_via_fdroid": "Хоча завантаження APK доступні нижче, аби надати вам вибір, ви маєте знати, що обравши цей спосіб, ви не отримаєте сповіщення про оновлення і це менш безпечний спосіб завантаження. Ми радимо встановити клієнт F-Droid і використовувати його.",
        "source_code": "Вихідний код",
        "flattr": "Flattr",
        "anti_features": "Небажані можливості",
        "anti_features_warning": "Застосунок має можливості, які можуть стати вам не до вподоби"
    },
    "sidebars": {
        "latest_packages": {
            "heading": "Останні застосунки"
        },
        "news": {
            "heading": "Новини"
        },
        "search": {
            "noscript": "Потрібно ввімкнути JavaScript",
            "search": "Пошук",
            "heading": "Знайти застосунки"
        },
        "donate": {
            "bank_transfer_name": "Ім'я",
            "bitcoin_alt": "Пожертвувати через Bitcoin",
            "powered_by_donations": "F-Droid працює завдяки ваших внесків!",
            "via_bank_transfer": "Банківський переказ",
            "litecoin_alt": "Задонатувати за допомогою Litecoin",
            "flattr_alt": "Пожертвувати через Flattr",
            "paypal_alt": "Пожертвувати через PayPal",
            "liberapay_alt": "Пожертвувати через Liberapay",
            "heading": "Пожертвувати",
            "hellotux": "👕 Футболки 👕 від",
            "hellotux_alt": "HELLOTUX",
            "hellotux_donation": "F-Droid отримає 3 € з продажу кожної футболки."
        },
        "last_updated": {
            "heading": "Останні оновлення"
        }
    }
}
