{
    "misc": {
        "step_x": "[number]. lépés",
        "step_x_description": "[number]. lépés: [description]",
        "option_x_description": "[number]. lehetőség: [description]",
        "overview": {
            "title": "Mit tehet az F-Droiddal",
            "summary": "Az F-Droid egy független, közösségi forrású alkalmazásbolt Androidra, amely teljesen szabad és nyílt forráskódú szoftver. Az F-Droidban 1.200 nyílt forráskódú alkalmazás között böngészhet, kereshet és telepíthet alkalmazásokat meglévő tárolókban, vagy létrehozhatja a sajátját. Nyissa meg az fdroid.org-ot az androidos telefonján az alkalmazás letöltéséhez, és vágjon bele!",
            "tutorial_x_title": "[number]. lecke: [title]"
        }
    },
    "add_repo": {
        "overview": {
            "title": "Szerezzen be több tartalmat.",
            "summary": "Több minden beszerzéséhez adjon egy tárolót az F-Droidhoz. Egy tároló válogatott tartalmak gyűjteménye. Az emberek tárolóit közvetlenül a készítőktől ismerheti meg. A fejlesztők gyakran hivatkozzák a saját F-Droid tárolójukat a weboldalukon. Az oktatók gyakran megosztják a hivatkozásaikat e-mailben, Facebookon vagy Twitteren."
        }
    }
}
