{
    "index": {
        "download_fdroid": "Elŝuti F-Droid",
        "introduction": "F-Droid estas instalebla katalogo de Libera kaj Malfermkoda Programaro (FOSS) por operaciumo Android. La kliento plifaciligas foliumadon, instaladon kaj spuradon de ĝisdatigoj ĉe via aparato.",
        "gpg_signature": "PGP-subskribo",
        "screenshot": "Ekrankopio de F-Droid ĉe Android",
        "title": "Kio estas F-Droid?"
    },
    "navigation": {
        "about": "Pri",
        "documentation": "Dokumentaro",
        "forum": "Forumo",
        "browse": "Esplori",
        "contribute": "Kontribui",
        "repomaker": "Deponej-farilo",
        "tutorials": "Gvidiloj",
        "news": "Novaĵoj",
        "issues": "Problemoj"
    },
    "package": {
        "website": "Retejo",
        "permissions": "Permesoj",
        "donate": "Donaci",
        "liberapay": "Liberapay",
        "technical_info": "Teĥnikaj detaloj",
        "build_metadata": "Kompilaj metadatumoj",
        "author": "Aŭtoro",
        "new_in_version": "Novaj en versio [latest_version]",
        "version_info": "<b>Versio [package_version]</b> ([package_version_code]) - aldonita je [package_added_date]",
        "changelog": "Ŝanĝoprotokolo",
        "issue_tracker": "Erar-spurilo",
        "signed_by_developer": "Ĝi estas kompilita kaj subskribita de la programisto mem.",
        "gpg_signature": "PGP-subskribo",
        "signed_by_fdroid": "Ĝi estas kompilita kaj subskribita de F-Droid kaj oni garantias identecon kun <a href=\"[source_code_url]\">tiu ĉi fontkoda pakaĵo</a>.",
        "packages": "Pakaĵoj",
        "download": "Elŝuti [file_extension]",
        "license": "Permesilo",
        "minimum_android_version": "Tiu ĉi versio postulas Androidon [android_version] aŭ pli novan.",
        "suggest_downloading_via_fdroid": "Kvankam APK-oj elŝuteblas sube, vi devus scii, ke per instali tiumaniere vi ne ricevos sciigojn pri ĝisdatigoj kaj tio estas malpli sekura maniero por elŝuti. Ni konsilas por ke vi instalu klienton F-Droid kaj uzu ĝin.",
        "source_code": "Fontkodo",
        "flattr": "Flattr",
        "anti_features": "Fiebloj",
        "anti_features_warning": "Tiu ĉi aplikaĵo enhavas eblojn, kiujn vi povas ne ŝati"
    },
    "sidebars": {
        "latest_packages": {
            "heading": "Plej novaj aplikaĵoj"
        },
        "news": {
            "heading": "Novaĵoj"
        },
        "search": {
            "noscript": "Postulas aktivan ĝavoskripton",
            "search": "Serĉi",
            "heading": "Serĉi aplikaĵojn"
        },
        "donate": {
            "bank_transfer_name": "Nomo",
            "bitcoin_alt": "Donaci per Bitmono",
            "powered_by_donations": "F-Droid estas subtenata per viaj donacoj!",
            "via_bank_transfer": "Ĝiro",
            "litecoin_alt": "Donaci per Litecoin",
            "flattr_alt": "Donaci per Flattr",
            "paypal_alt": "Donaci per PayPal",
            "liberapay_alt": "Donaci per Liberapay",
            "heading": "Donaci",
            "hellotux": "👕 T-ĉemizoj 👕 el",
            "hellotux_alt": "HELLOTUX",
            "hellotux_donation": "F-Droid ricevos 3 € de ĉiu vendita T-ĉemizo."
        },
        "last_updated": {
            "heading": "Laste ĝisdatigitaj"
        }
    }
}
