{
    "index": {
        "download_fdroid": "F-Droid 다운로드",
        "introduction": "F-Droid는 Android 플랫폼을 위한 설치 가능한 FOSS (자유-오픈 소스 소프트웨어) 애플리케이션의 카탈로그입니다. 클라이언트는 여러분의 기기에서 찾아보고, 설치하고, 업데이트의 추적을 유지하는 것을 쉽게 합니다.",
        "gpg_signature": "PGP 서명",
        "screenshot": "F-Droid Android 앱 스크린샷",
        "title": "F-Droid가 무엇입니까?"
    },
    "navigation": {
        "about": "정보",
        "contribute": "기여하기",
        "forum": "포럼",
        "browse": "찾아보기",
        "documentation": "설명문서",
        "repomaker": "저장소제작기",
        "tutorials": "자습서",
        "news": "뉴스",
        "issues": "이슈"
    },
    "package": {
        "website": "웹사이트",
        "permissions": "권한",
        "donate": "기부",
        "liberapay": "Liberapay",
        "technical_info": "기술적인 정보",
        "build_metadata": "빌드 메타데이터",
        "author": "저자",
        "new_in_version": "버전 [latest_version]의 새로운 기능",
        "version_info": "<b>버전 [package_version]</b> ([package_version_code]) - [package_added_date]에 추가됨",
        "changelog": "변경내역",
        "issue_tracker": "이슈 트래커",
        "signed_by_developer": "이것은 원래 개발자에 의해 빌드되고 서명되어 있습니다.",
        "gpg_signature": "PGP 서명",
        "signed_by_fdroid": "이것은 F-Droid에 의해 빌드되고 서명되어 있으며, <a href=\"[source_code_url]\">이 소스 타르볼</a>에 대응되어 보증됩니다.",
        "packages": "패키지",
        "download": "[file_extension] 다운로드",
        "license": "라이선스",
        "minimum_android_version": "이 버전은 Android [android_version] 이상이 필요합니다.",
        "suggest_downloading_via_fdroid": "APK 다운로드는 여러분의 선택을 드리기 위해 아래에 사용 가능하지만, 여러분은 해당 방법으로 설치하는 것은 업데이트 알림을 수신할 수 없고 덜 안전한 방법으로 다운로드한다는 것을 알고 있어야 합니다. 우리는 여러분에게 F-Droid 클라이언트를 설치하고 사용하는 것을 권해드립니다.",
        "source_code": "소스 코드",
        "flattr": "Flattr",
        "anti_features": "안티 기능",
        "anti_features_warning": "이 앱은 여러분이 좋아하지 않을 수 있는 기능이 있습니다"
    },
    "sidebars": {
        "latest_packages": {
            "heading": "최신 앱"
        },
        "news": {
            "heading": "뉴스"
        },
        "search": {
            "noscript": "활성화하려면 JavaScript가 필요합니다",
            "search": "검색",
            "heading": "앱 찾기"
        },
        "donate": {
            "bank_transfer_name": "이름",
            "bitcoin_alt": "비트코인을 통해 기부",
            "powered_by_donations": "F-Droid는 여러분의 기부로 제공됩니다!",
            "via_bank_transfer": "은행 송금",
            "litecoin_alt": "라이트코인을 통해 기부",
            "flattr_alt": "Flattr를 통해 기부",
            "paypal_alt": "PayPal을 통해 기부",
            "liberapay_alt": "Liberapay를 통해 기부",
            "heading": "기부",
            "hellotux": "👕 티셔츠 👕 판매처",
            "hellotux_alt": "HELLOTUX",
            "hellotux_donation": "F-Droid는 셔츠가 팔릴 때마다 3 €를 받을 것입니다."
        },
        "last_updated": {
            "heading": "마지막 업데이트"
        }
    }
}
